Jobs, Politics, and Reality: Fact-Checking Claims About CES Revisions – STA 9750 Submission Material
…
  drop_na(date, level) |>
  arrange(date)

ces_final <- ces_clean |>
  filter(
    date >= as.Date("1979-01-01"),
    date <= as.Date("2025-06-01")
  ) |>
  select(date, level)

ces_final

# A tibble: 558 × 2
   date       level
   <date>     <dbl>
 1 1979-01-01 88808
 2 1979-02-01 89055
 3 1979-03-01 89479
 4 1979-04-01 89417
 5 1979-05-01 89789
 6 1979-06-01 90108
 7 1979-07-01 90217
 8 1979-08-01 90300
 9 1979-09-01 90327
10 1979-10-01 90481
# ℹ 548 more rows
…
